EESchema Schematic File Version 2
LIBS:power
LIBS:device
LIBS:transistors
LIBS:conn
LIBS:linear
LIBS:regul
LIBS:74xx
LIBS:cmos4000
LIBS:adc-dac
LIBS:memory
LIBS:xilinx
LIBS:microcontrollers
LIBS:dsp
LIBS:microchip
LIBS:analog_switches
LIBS:motorola
LIBS:texas
LIBS:intel
LIBS:audio
LIBS:interface
LIBS:digital-audio
LIBS:philips
LIBS:display
LIBS:cypress
LIBS:siliconi
LIBS:opto
LIBS:atmel
LIBS:contrib
LIBS:valves
LIBS:arduino
LIBS:arduino-tester-cache
EELAYER 25 0
EELAYER END
$Descr A4 11693 8268
encoding utf-8
Sheet 1 1
Title ""
Date ""
Rev ""
Comp ""
Comment1 ""
Comment2 ""
Comment3 ""
Comment4 ""
$EndDescr
$Comp
L arduino_nano U1
U 1 1 5AE81205
P 5450 3600
F 0 "U1" H 5750 2550 70  0000 C CNN
F 1 "arduino_nano" H 5750 2800 70  0000 C CNN
F 2 "myMicroControllers:Arduino-nano" H 5750 3550 60  0001 C CNN
F 3 "" H 5450 3600 60  0000 C CNN
	1    5450 3600
	1    0    0    -1  
$EndComp
$Comp
L R R12
U 1 1 5AE81258
P 8350 2750
F 0 "R12" V 8430 2750 50  0000 C CNN
F 1 "1K" V 8350 2750 50  0000 C CNN
F 2 "Resistors_ThroughHole:Resistor_Horizontal_RM10mm" V 8280 2750 50  0001 C CNN
F 3 "" H 8350 2750 50  0000 C CNN
	1    8350 2750
	0    1    1    0   
$EndComp
$Comp
L R R13
U 1 1 5AE8151C
P 8350 2900
F 0 "R13" V 8430 2900 50  0000 C CNN
F 1 "1K" V 8350 2900 50  0000 C CNN
F 2 "Resistors_ThroughHole:Resistor_Horizontal_RM10mm" V 8280 2900 50  0001 C CNN
F 3 "" H 8350 2900 50  0000 C CNN
	1    8350 2900
	0    1    1    0   
$EndComp
$Comp
L R R14
U 1 1 5AE81551
P 8350 3050
F 0 "R14" V 8430 3050 50  0000 C CNN
F 1 "1K" V 8350 3050 50  0000 C CNN
F 2 "Resistors_ThroughHole:Resistor_Horizontal_RM10mm" V 8280 3050 50  0001 C CNN
F 3 "" H 8350 3050 50  0000 C CNN
	1    8350 3050
	0    1    1    0   
$EndComp
$Comp
L R R15
U 1 1 5AE81589
P 8350 3200
F 0 "R15" V 8430 3200 50  0000 C CNN
F 1 "1K" V 8350 3200 50  0000 C CNN
F 2 "Resistors_ThroughHole:Resistor_Horizontal_RM10mm" V 8280 3200 50  0001 C CNN
F 3 "" H 8350 3200 50  0000 C CNN
	1    8350 3200
	0    1    1    0   
$EndComp
$Comp
L R R16
U 1 1 5AE815C4
P 8350 3350
F 0 "R16" V 8430 3350 50  0000 C CNN
F 1 "1K" V 8350 3350 50  0000 C CNN
F 2 "Resistors_ThroughHole:Resistor_Horizontal_RM10mm" V 8280 3350 50  0001 C CNN
F 3 "" H 8350 3350 50  0000 C CNN
	1    8350 3350
	0    1    1    0   
$EndComp
$Comp
L R R17
U 1 1 5AE81602
P 8350 3500
F 0 "R17" V 8430 3500 50  0000 C CNN
F 1 "1K" V 8350 3500 50  0000 C CNN
F 2 "Resistors_ThroughHole:Resistor_Horizontal_RM10mm" V 8280 3500 50  0001 C CNN
F 3 "" H 8350 3500 50  0000 C CNN
	1    8350 3500
	0    1    1    0   
$EndComp
$Comp
L R R18
U 1 1 5AE81643
P 8350 3650
F 0 "R18" V 8430 3650 50  0000 C CNN
F 1 "1K" V 8350 3650 50  0000 C CNN
F 2 "Resistors_ThroughHole:Resistor_Horizontal_RM10mm" V 8280 3650 50  0001 C CNN
F 3 "" H 8350 3650 50  0000 C CNN
	1    8350 3650
	0    1    1    0   
$EndComp
$Comp
L R R19
U 1 1 5AE81687
P 8350 3800
F 0 "R19" V 8430 3800 50  0000 C CNN
F 1 "1K" V 8350 3800 50  0000 C CNN
F 2 "Resistors_ThroughHole:Resistor_Horizontal_RM10mm" V 8280 3800 50  0001 C CNN
F 3 "" H 8350 3800 50  0000 C CNN
	1    8350 3800
	0    1    1    0   
$EndComp
$Comp
L R R11
U 1 1 5AE81B31
P 8350 2600
F 0 "R11" V 8430 2600 50  0000 C CNN
F 1 "1K" V 8350 2600 50  0000 C CNN
F 2 "Resistors_ThroughHole:Resistor_Horizontal_RM10mm" V 8280 2600 50  0001 C CNN
F 3 "" H 8350 2600 50  0000 C CNN
	1    8350 2600
	0    1    1    0   
$EndComp
$Comp
L R R20
U 1 1 5AE82218
P 8350 3950
F 0 "R20" V 8430 3950 50  0000 C CNN
F 1 "1K" V 8350 3950 50  0000 C CNN
F 2 "Resistors_ThroughHole:Resistor_Horizontal_RM10mm" V 8280 3950 50  0001 C CNN
F 3 "" H 8350 3950 50  0000 C CNN
	1    8350 3950
	0    1    1    0   
$EndComp
$Comp
L R R21
U 1 1 5AE82266
P 8350 4100
F 0 "R21" V 8430 4100 50  0000 C CNN
F 1 "1K" V 8350 4100 50  0000 C CNN
F 2 "Resistors_ThroughHole:Resistor_Horizontal_RM10mm" V 8280 4100 50  0001 C CNN
F 3 "" H 8350 4100 50  0000 C CNN
	1    8350 4100
	0    1    1    0   
$EndComp
$Comp
L R R22
U 1 1 5AE822B7
P 8350 4250
F 0 "R22" V 8430 4250 50  0000 C CNN
F 1 "1K" V 8350 4250 50  0000 C CNN
F 2 "Resistors_ThroughHole:Resistor_Horizontal_RM10mm" V 8280 4250 50  0001 C CNN
F 3 "" H 8350 4250 50  0000 C CNN
	1    8350 4250
	0    1    1    0   
$EndComp
$Comp
L Led_Small D20
U 1 1 5AE83B2D
P 8600 4450
F 0 "D20" H 8550 4575 50  0000 L CNN
F 1 "D13H" H 7950 4450 50  0000 L CNN
F 2 "LEDs:LED-5MM" V 8600 4450 50  0001 C CNN
F 3 "" V 8600 4450 50  0000 C CNN
	1    8600 4450
	0    -1   -1   0   
$EndComp
$Comp
L Led_Small D22
U 1 1 5AE83CA3
P 8750 4650
F 0 "D22" H 8700 4775 50  0000 L CNN
F 1 "D12H" H 8300 4650 50  0000 L CNN
F 2 "LEDs:LED-5MM" V 8750 4650 50  0001 C CNN
F 3 "" V 8750 4650 50  0000 C CNN
	1    8750 4650
	0    -1   -1   0   
$EndComp
$Comp
L Led_Small D26
U 1 1 5AE83EC7
P 9050 4650
F 0 "D26" H 9000 4775 50  0000 L CNN
F 1 "D10H" H 8600 4650 50  0000 L CNN
F 2 "LEDs:LED-5MM" V 9050 4650 50  0001 C CNN
F 3 "" V 9050 4650 50  0000 C CNN
	1    9050 4650
	0    -1   -1   0   
$EndComp
$Comp
L Led_Small D30
U 1 1 5AE83F33
P 9350 4650
F 0 "D30" H 9300 4775 50  0000 L CNN
F 1 "D8H" H 8900 4650 50  0000 L CNN
F 2 "LEDs:LED-5MM" V 9350 4650 50  0001 C CNN
F 3 "" V 9350 4650 50  0000 C CNN
	1    9350 4650
	0    -1   -1   0   
$EndComp
$Comp
L Led_Small D34
U 1 1 5AE83FA2
P 9650 4650
F 0 "D34" H 9600 4775 50  0000 L CNN
F 1 "D6H" H 9200 4650 50  0000 L CNN
F 2 "LEDs:LED-5MM" V 9650 4650 50  0001 C CNN
F 3 "" V 9650 4650 50  0000 C CNN
	1    9650 4650
	0    -1   -1   0   
$EndComp
$Comp
L Led_Small D38
U 1 1 5AE84014
P 9950 4650
F 0 "D38" H 9900 4775 50  0000 L CNN
F 1 "D4H" H 9500 4650 50  0000 L CNN
F 2 "LEDs:LED-5MM" V 9950 4650 50  0001 C CNN
F 3 "" V 9950 4650 50  0000 C CNN
	1    9950 4650
	0    -1   -1   0   
$EndComp
$Comp
L Led_Small D42
U 1 1 5AE84089
P 10250 4650
F 0 "D42" H 10200 4775 50  0000 L CNN
F 1 "D2H" H 9800 4650 50  0000 L CNN
F 2 "LEDs:LED-5MM" V 10250 4650 50  0001 C CNN
F 3 "" V 10250 4650 50  0000 C CNN
	1    10250 4650
	0    -1   -1   0   
$EndComp
$Comp
L Led_Small D24
U 1 1 5AE843ED
P 8900 4450
F 0 "D24" H 8850 4575 50  0000 L CNN
F 1 "D11H" H 8250 4450 50  0000 L CNN
F 2 "LEDs:LED-5MM" V 8900 4450 50  0001 C CNN
F 3 "" V 8900 4450 50  0000 C CNN
	1    8900 4450
	0    -1   -1   0   
$EndComp
$Comp
L Led_Small D28
U 1 1 5AE84468
P 9200 4450
F 0 "D28" H 9150 4575 50  0000 L CNN
F 1 "D9H" H 8550 4450 50  0000 L CNN
F 2 "LEDs:LED-5MM" V 9200 4450 50  0001 C CNN
F 3 "" V 9200 4450 50  0000 C CNN
	1    9200 4450
	0    -1   -1   0   
$EndComp
$Comp
L Led_Small D32
U 1 1 5AE844E6
P 9500 4450
F 0 "D32" H 9450 4575 50  0000 L CNN
F 1 "D7H" H 8850 4450 50  0000 L CNN
F 2 "LEDs:LED-5MM" V 9500 4450 50  0001 C CNN
F 3 "" V 9500 4450 50  0000 C CNN
	1    9500 4450
	0    -1   -1   0   
$EndComp
$Comp
L Led_Small D36
U 1 1 5AE84567
P 9800 4450
F 0 "D36" H 9750 4575 50  0000 L CNN
F 1 "D5H" H 9150 4450 50  0000 L CNN
F 2 "LEDs:LED-5MM" V 9800 4450 50  0001 C CNN
F 3 "" V 9800 4450 50  0000 C CNN
	1    9800 4450
	0    -1   -1   0   
$EndComp
$Comp
L Led_Small D40
U 1 1 5AE845EB
P 10100 4450
F 0 "D40" H 10050 4575 50  0000 L CNN
F 1 "D3H" H 9450 4450 50  0000 L CNN
F 2 "LEDs:LED-5MM" V 10100 4450 50  0001 C CNN
F 3 "" V 10100 4450 50  0000 C CNN
	1    10100 4450
	0    -1   -1   0   
$EndComp
$Comp
L R R1
U 1 1 5AE859AB
P 3650 2900
F 0 "R1" V 3730 2900 50  0000 C CNN
F 1 "1K" V 3650 2900 50  0000 C CNN
F 2 "Resistors_ThroughHole:Resistor_Horizontal_RM10mm" V 3580 2900 50  0001 C CNN
F 3 "" H 3650 2900 50  0000 C CNN
	1    3650 2900
	0    1    1    0   
$EndComp
$Comp
L Led_Small D17
U 1 1 5AE85AC7
P 3250 4450
F 0 "D17" H 3200 4575 50  0000 L CNN
F 1 "3.3V" H 2600 4450 50  0000 L CNN
F 2 "LEDs:LED-5MM" V 3250 4450 50  0001 C CNN
F 3 "" V 3250 4450 50  0000 C CNN
	1    3250 4450
	0    -1   -1   0   
$EndComp
$Comp
L R R10
U 1 1 5AE85DEA
P 3650 4400
F 0 "R10" V 3730 4400 50  0000 C CNN
F 1 "1K" V 3650 4400 50  0000 C CNN
F 2 "Resistors_ThroughHole:Resistor_Horizontal_RM10mm" V 3580 4400 50  0001 C CNN
F 3 "" H 3650 4400 50  0000 C CNN
	1    3650 4400
	0    1    1    0   
$EndComp
$Comp
L Led_Small D18
U 1 1 5AE85EB4
P 3400 4650
F 0 "D18" H 3350 4775 50  0000 L CNN
F 1 "5V" H 2950 4650 50  0000 L CNN
F 2 "LEDs:LED-5MM" V 3400 4650 50  0001 C CNN
F 3 "" V 3400 4650 50  0000 C CNN
	1    3400 4650
	0    -1   -1   0   
$EndComp
$Comp
L GND #PWR6
U 1 1 5AE85FF2
P 10450 5050
F 0 "#PWR6" H 10450 4800 50  0001 C CNN
F 1 "GND" H 10450 4900 50  0000 C CNN
F 2 "" H 10450 5050 50  0000 C CNN
F 3 "" H 10450 5050 50  0000 C CNN
	1    10450 5050
	1    0    0    -1  
$EndComp
$Comp
L GND #PWR2
U 1 1 5AE862FE
P 3600 5000
F 0 "#PWR2" H 3600 4750 50  0001 C CNN
F 1 "GND" H 3600 4850 50  0000 C CNN
F 2 "" H 3600 5000 50  0000 C CNN
F 3 "" H 3600 5000 50  0000 C CNN
	1    3600 5000
	1    0    0    -1  
$EndComp
$Comp
L R R2
U 1 1 5AE86D10
P 3650 3200
F 0 "R2" V 3730 3200 50  0000 C CNN
F 1 "1K" V 3650 3200 50  0000 C CNN
F 2 "Resistors_ThroughHole:Resistor_Horizontal_RM10mm" V 3580 3200 50  0001 C CNN
F 3 "" H 3650 3200 50  0000 C CNN
	1    3650 3200
	0    1    1    0   
$EndComp
$Comp
L R R3
U 1 1 5AE86DA6
P 3650 3350
F 0 "R3" V 3730 3350 50  0000 C CNN
F 1 "1K" V 3650 3350 50  0000 C CNN
F 2 "Resistors_ThroughHole:Resistor_Horizontal_RM10mm" V 3580 3350 50  0001 C CNN
F 3 "" H 3650 3350 50  0000 C CNN
	1    3650 3350
	0    1    1    0   
$EndComp
$Comp
L R R4
U 1 1 5AE86E39
P 3650 3500
F 0 "R4" V 3730 3500 50  0000 C CNN
F 1 "1K" V 3650 3500 50  0000 C CNN
F 2 "Resistors_ThroughHole:Resistor_Horizontal_RM10mm" V 3580 3500 50  0001 C CNN
F 3 "" H 3650 3500 50  0000 C CNN
	1    3650 3500
	0    1    1    0   
$EndComp
$Comp
L R R5
U 1 1 5AE86ECF
P 3650 3650
F 0 "R5" V 3730 3650 50  0000 C CNN
F 1 "1K" V 3650 3650 50  0000 C CNN
F 2 "Resistors_ThroughHole:Resistor_Horizontal_RM10mm" V 3580 3650 50  0001 C CNN
F 3 "" H 3650 3650 50  0000 C CNN
	1    3650 3650
	0    1    1    0   
$EndComp
$Comp
L R R6
U 1 1 5AE86F68
P 3650 3800
F 0 "R6" V 3730 3800 50  0000 C CNN
F 1 "1K" V 3650 3800 50  0000 C CNN
F 2 "Resistors_ThroughHole:Resistor_Horizontal_RM10mm" V 3580 3800 50  0001 C CNN
F 3 "" H 3650 3800 50  0000 C CNN
	1    3650 3800
	0    1    1    0   
$EndComp
$Comp
L R R7
U 1 1 5AE87004
P 3650 3950
F 0 "R7" V 3730 3950 50  0000 C CNN
F 1 "1K" V 3650 3950 50  0000 C CNN
F 2 "Resistors_ThroughHole:Resistor_Horizontal_RM10mm" V 3580 3950 50  0001 C CNN
F 3 "" H 3650 3950 50  0000 C CNN
	1    3650 3950
	0    1    1    0   
$EndComp
$Comp
L Battery BT1
U 1 1 5AE8C637
P 5200 6050
F 0 "BT1" H 5300 6100 50  0000 L CNN
F 1 "18650" H 4950 5900 50  0000 L CNN
F 2 "myBatteries:18650" V 5200 6090 50  0001 C CNN
F 3 "" V 5200 6090 50  0000 C CNN
	1    5200 6050
	1    0    0    -1  
$EndComp
$Comp
L GND #PWR3
U 1 1 5AE8C853
P 5200 6400
F 0 "#PWR3" H 5200 6150 50  0001 C CNN
F 1 "GND" H 5200 6250 50  0000 C CNN
F 2 "" H 5200 6400 50  0000 C CNN
F 3 "" H 5200 6400 50  0000 C CNN
	1    5200 6400
	1    0    0    -1  
$EndComp
$Comp
L GND #PWR4
U 1 1 5AE8D9CF
P 6900 5050
F 0 "#PWR4" H 6900 4800 50  0001 C CNN
F 1 "GND" H 6900 4900 50  0000 C CNN
F 2 "" H 6900 5050 50  0000 C CNN
F 3 "" H 6900 5050 50  0000 C CNN
	1    6900 5050
	1    0    0    -1  
$EndComp
$Comp
L CONN_01X15 P2
U 1 1 5AE8DC12
P 7450 1950
F 0 "P2" H 7450 2750 50  0000 C CNN
F 1 "ARDUINO2" V 7550 1950 50  0000 C CNN
F 2 "Pin_Headers:Pin_Header_Straight_1x15" H 7450 1950 50  0001 C CNN
F 3 "" H 7450 1950 50  0000 C CNN
	1    7450 1950
	0    1    -1   0   
$EndComp
$Comp
L CONN_01X15 P1
U 1 1 5AE8E0CB
P 4100 1850
F 0 "P1" H 4100 2650 50  0000 C CNN
F 1 "ARDUINO1" V 4200 1850 50  0000 C CNN
F 2 "Pin_Headers:Pin_Header_Straight_1x15" H 4100 1850 50  0001 C CNN
F 3 "" H 4100 1850 50  0000 C CNN
	1    4100 1850
	0    1    -1   0   
$EndComp
$Comp
L SWITCH_INV SW1
U 1 1 5AE997EE
P 4450 5300
F 0 "SW1" H 4250 5450 50  0000 C CNN
F 1 "POWER" H 4300 5150 50  0000 C CNN
F 2 "mySwitches:SECME-CIRDJET" H 4450 5300 50  0001 C CNN
F 3 "" H 4450 5300 50  0000 C CNN
	1    4450 5300
	1    0    0    -1  
$EndComp
$Comp
L C C1
U 1 1 5AE840D6
P 3950 5850
F 0 "C1" H 3975 5950 50  0000 L CNN
F 1 "100nF" H 3975 5750 50  0000 L CNN
F 2 "Capacitors_ThroughHole:C_Rect_L7_W3.5_P5" H 3988 5700 50  0001 C CNN
F 3 "" H 3950 5850 50  0000 C CNN
	1    3950 5850
	1    0    0    -1  
$EndComp
$Comp
L CONN_01X02 P3
U 1 1 5AE84B5B
P 5800 5450
F 0 "P3" H 5800 5600 50  0000 C CNN
F 1 "POWER" V 5900 5450 50  0000 C CNN
F 2 "myConnectors:LUNBERG-1613-21" H 5800 5450 50  0001 C CNN
F 3 "" H 5800 5450 50  0000 C CNN
	1    5800 5450
	1    0    0    -1  
$EndComp
$Comp
L TEST_1P W1
U 1 1 5AE85F0C
P 4600 6100
F 0 "W1" H 4600 6370 50  0000 C CNN
F 1 "GND" H 4600 6300 50  0000 C CNN
F 2 "Pin_Headers:Pin_Header_Straight_1x01" H 4800 6100 50  0001 C CNN
F 3 "" H 4800 6100 50  0000 C CNN
	1    4600 6100
	1    0    0    -1  
$EndComp
$Comp
L +5V #PWR5
U 1 1 5AE8613B
P 10450 1750
F 0 "#PWR5" H 10450 1600 50  0001 C CNN
F 1 "+5V" H 10450 1890 50  0000 C CNN
F 2 "" H 10450 1750 50  0000 C CNN
F 3 "" H 10450 1750 50  0000 C CNN
	1    10450 1750
	1    0    0    -1  
$EndComp
$Comp
L Led_Small D41
U 1 1 5AE83453
P 10250 2350
F 0 "D41" H 10200 2475 50  0000 L CNN
F 1 "D2L" H 10700 2350 50  0000 L CNN
F 2 "LEDs:LED-5MM" V 10250 2350 50  0001 C CNN
F 3 "" V 10250 2350 50  0000 C CNN
	1    10250 2350
	0    -1   -1   0   
$EndComp
$Comp
L Led_Small D39
U 1 1 5AE833F3
P 10100 2150
F 0 "D39" H 10050 2275 50  0000 L CNN
F 1 "D3L" H 10350 2150 50  0000 L CNN
F 2 "LEDs:LED-5MM" V 10100 2150 50  0001 C CNN
F 3 "" V 10100 2150 50  0000 C CNN
	1    10100 2150
	0    -1   -1   0   
$EndComp
$Comp
L Led_Small D37
U 1 1 5AE83396
P 9950 2350
F 0 "D37" H 9900 2475 50  0000 L CNN
F 1 "D4L" H 10400 2350 50  0000 L CNN
F 2 "LEDs:LED-5MM" V 9950 2350 50  0001 C CNN
F 3 "" V 9950 2350 50  0000 C CNN
	1    9950 2350
	0    -1   -1   0   
$EndComp
$Comp
L Led_Small D19
U 1 1 5AE81ADD
P 8600 2150
F 0 "D19" H 8550 2275 50  0000 L CNN
F 1 "D13L" H 8850 2150 50  0000 L CNN
F 2 "LEDs:LED-5MM" V 8600 2150 50  0001 C CNN
F 3 "" V 8600 2150 50  0000 C CNN
	1    8600 2150
	0    -1   -1   0   
$EndComp
$Comp
L Led_Small D35
U 1 1 5AE81420
P 9800 2150
F 0 "D35" H 9750 2275 50  0000 L CNN
F 1 "D5L" H 10050 2150 50  0000 L CNN
F 2 "LEDs:LED-5MM" V 9800 2150 50  0001 C CNN
F 3 "" V 9800 2150 50  0000 C CNN
	1    9800 2150
	0    -1   -1   0   
$EndComp
$Comp
L Led_Small D33
U 1 1 5AE813F1
P 9650 2350
F 0 "D33" H 9600 2475 50  0000 L CNN
F 1 "D6L" H 10100 2350 50  0000 L CNN
F 2 "LEDs:LED-5MM" V 9650 2350 50  0001 C CNN
F 3 "" V 9650 2350 50  0000 C CNN
	1    9650 2350
	0    -1   -1   0   
$EndComp
$Comp
L Led_Small D31
U 1 1 5AE813C5
P 9500 2150
F 0 "D31" H 9450 2275 50  0000 L CNN
F 1 "D7L" H 9750 2150 50  0000 L CNN
F 2 "LEDs:LED-5MM" V 9500 2150 50  0001 C CNN
F 3 "" V 9500 2150 50  0000 C CNN
	1    9500 2150
	0    -1   -1   0   
$EndComp
$Comp
L Led_Small D29
U 1 1 5AE8139C
P 9350 2350
F 0 "D29" H 9300 2475 50  0000 L CNN
F 1 "D8L" H 9800 2350 50  0000 L CNN
F 2 "LEDs:LED-5MM" V 9350 2350 50  0001 C CNN
F 3 "" V 9350 2350 50  0000 C CNN
	1    9350 2350
	0    -1   -1   0   
$EndComp
$Comp
L Led_Small D27
U 1 1 5AE81376
P 9200 2150
F 0 "D27" H 9150 2275 50  0000 L CNN
F 1 "D9L" H 9450 2150 50  0000 L CNN
F 2 "LEDs:LED-5MM" V 9200 2150 50  0001 C CNN
F 3 "" V 9200 2150 50  0000 C CNN
	1    9200 2150
	0    -1   -1   0   
$EndComp
$Comp
L Led_Small D25
U 1 1 5AE81353
P 9050 2350
F 0 "D25" H 9000 2475 50  0000 L CNN
F 1 "D10L" H 9500 2350 50  0000 L CNN
F 2 "LEDs:LED-5MM" V 9050 2350 50  0001 C CNN
F 3 "" V 9050 2350 50  0000 C CNN
	1    9050 2350
	0    -1   -1   0   
$EndComp
$Comp
L Led_Small D23
U 1 1 5AE81333
P 8900 2150
F 0 "D23" H 8850 2275 50  0000 L CNN
F 1 "D11L" H 9150 2150 50  0000 L CNN
F 2 "LEDs:LED-5MM" V 8900 2150 50  0001 C CNN
F 3 "" V 8900 2150 50  0000 C CNN
	1    8900 2150
	0    -1   -1   0   
$EndComp
$Comp
L Led_Small D21
U 1 1 5AE812B6
P 8750 2350
F 0 "D21" H 8700 2475 50  0000 L CNN
F 1 "D12L" H 9200 2350 50  0000 L CNN
F 2 "LEDs:LED-5MM" V 8750 2350 50  0001 C CNN
F 3 "" V 8750 2350 50  0000 C CNN
	1    8750 2350
	0    -1   -1   0   
$EndComp
$Comp
L +5V #PWR1
U 1 1 5AE8C193
P 3150 1750
F 0 "#PWR1" H 3150 1600 50  0001 C CNN
F 1 "+5V" H 3150 1890 50  0000 C CNN
F 2 "" H 3150 1750 50  0000 C CNN
F 3 "" H 3150 1750 50  0000 C CNN
	1    3150 1750
	1    0    0    -1  
$EndComp
Text Notes 4550 1550 0    60   ~ 0
Implantation Leds impaires ou paires mais pas les deux.
$Comp
L Battery BT2
U 1 1 5AEEC8D5
P 5200 5650
F 0 "BT2" H 5300 5700 50  0000 L CNN
F 1 "18650" H 4950 5500 50  0000 L CNN
F 2 "myBatteries:18650" V 5200 5690 50  0001 C CNN
F 3 "" V 5200 5690 50  0000 C CNN
	1    5200 5650
	1    0    0    -1  
$EndComp
$Comp
L Led_Small D11
U 1 1 5AE89CC2
P 2800 2150
F 0 "D11" H 2750 2275 50  0000 L CNN
F 1 "A5L" H 3050 2150 50  0000 L CNN
F 2 "LEDs:LED-5MM" V 2800 2150 50  0001 C CNN
F 3 "" V 2800 2150 50  0000 C CNN
	1    2800 2150
	0    -1   -1   0   
$EndComp
$Comp
L Led_Small D7
U 1 1 5AE89D8E
P 2500 2150
F 0 "D7" H 2450 2275 50  0000 L CNN
F 1 "A3L" H 2750 2150 50  0000 L CNN
F 2 "LEDs:LED-5MM" V 2500 2150 50  0001 C CNN
F 3 "" V 2500 2150 50  0000 C CNN
	1    2500 2150
	0    -1   -1   0   
$EndComp
$Comp
L Led_Small D3
U 1 1 5AE89E5D
P 2200 2150
F 0 "D3" H 2150 2275 50  0000 L CNN
F 1 "A1L" H 2450 2150 50  0000 L CNN
F 2 "LEDs:LED-5MM" V 2200 2150 50  0001 C CNN
F 3 "" V 2200 2150 50  0000 C CNN
	1    2200 2150
	0    -1   -1   0   
$EndComp
$Comp
L Led_Small D9
U 1 1 5AE89FF1
P 2650 2350
F 0 "D9" H 2600 2475 50  0000 L CNN
F 1 "A4L" H 3100 2350 50  0000 L CNN
F 2 "LEDs:LED-5MM" V 2650 2350 50  0001 C CNN
F 3 "" V 2650 2350 50  0000 C CNN
	1    2650 2350
	0    -1   -1   0   
$EndComp
$Comp
L Led_Small D5
U 1 1 5AE8A0C6
P 2350 2350
F 0 "D5" H 2300 2475 50  0000 L CNN
F 1 "A2L" H 2800 2350 50  0000 L CNN
F 2 "LEDs:LED-5MM" V 2350 2350 50  0001 C CNN
F 3 "" V 2350 2350 50  0000 C CNN
	1    2350 2350
	0    -1   -1   0   
$EndComp
$Comp
L Led_Small D1
U 1 1 5AE8A19E
P 2050 2350
F 0 "D1" H 2000 2475 50  0000 L CNN
F 1 "A0L" H 2500 2350 50  0000 L CNN
F 2 "LEDs:LED-5MM" V 2050 2350 50  0001 C CNN
F 3 "" V 2050 2350 50  0000 C CNN
	1    2050 2350
	0    -1   -1   0   
$EndComp
$Comp
L Led_Small D2
U 1 1 5AE8879C
P 2050 4450
F 0 "D2" H 2000 4575 50  0000 L CNN
F 1 "A0H" H 1400 4450 50  0000 L CNN
F 2 "LEDs:LED-5MM" V 2050 4450 50  0001 C CNN
F 3 "" V 2050 4450 50  0000 C CNN
	1    2050 4450
	0    -1   -1   0   
$EndComp
$Comp
L Led_Small D4
U 1 1 5AE885CE
P 2200 4650
F 0 "D4" H 2150 4775 50  0000 L CNN
F 1 "A1H" H 1750 4650 50  0000 L CNN
F 2 "LEDs:LED-5MM" V 2200 4650 50  0001 C CNN
F 3 "" V 2200 4650 50  0000 C CNN
	1    2200 4650
	0    -1   -1   0   
$EndComp
$Comp
L Led_Small D6
U 1 1 5AE87CFC
P 2350 4450
F 0 "D6" H 2300 4575 50  0000 L CNN
F 1 "A2H" H 1700 4450 50  0000 L CNN
F 2 "LEDs:LED-5MM" V 2350 4450 50  0001 C CNN
F 3 "" V 2350 4450 50  0000 C CNN
	1    2350 4450
	0    -1   -1   0   
$EndComp
$Comp
L Led_Small D10
U 1 1 5AE87C42
P 2650 4450
F 0 "D10" H 2600 4575 50  0000 L CNN
F 1 "A4H" H 2000 4450 50  0000 L CNN
F 2 "LEDs:LED-5MM" V 2650 4450 50  0001 C CNN
F 3 "" V 2650 4450 50  0000 C CNN
	1    2650 4450
	0    -1   -1   0   
$EndComp
$Comp
L Led_Small D8
U 1 1 5AE87A22
P 2500 4650
F 0 "D8" H 2450 4775 50  0000 L CNN
F 1 "A3H" H 2050 4650 50  0000 L CNN
F 2 "LEDs:LED-5MM" V 2500 4650 50  0001 C CNN
F 3 "" V 2500 4650 50  0000 C CNN
	1    2500 4650
	0    -1   -1   0   
$EndComp
$Comp
L Led_Small D12
U 1 1 5AE8796B
P 2800 4650
F 0 "D12" H 2750 4775 50  0000 L CNN
F 1 "A5H" H 2350 4650 50  0000 L CNN
F 2 "LEDs:LED-5MM" V 2800 4650 50  0001 C CNN
F 3 "" V 2800 4650 50  0000 C CNN
	1    2800 4650
	0    -1   -1   0   
$EndComp
$Comp
L POT RV2
U 1 1 5AEED949
P 1650 4100
F 0 "RV2" H 1650 4020 50  0000 C CNN
F 1 "POT" H 1650 4100 50  0000 C CNN
F 2 "library:Potentiometer_5.08x10.16" H 1650 4100 50  0001 C CNN
F 3 "" H 1650 4100 50  0000 C CNN
	1    1650 4100
	0    1    -1   0   
$EndComp
$Comp
L POT RV1
U 1 1 5AEEDA44
P 1450 4400
F 0 "RV1" H 1450 4320 50  0000 C CNN
F 1 "POT" H 1450 4400 50  0000 C CNN
F 2 "library:Potentiometer_5.08x10.16" H 1450 4400 50  0001 C CNN
F 3 "" H 1450 4400 50  0000 C CNN
	1    1450 4400
	0    1    -1   0   
$EndComp
Wire Wire Line
	8750 2450 8750 4550
Wire Wire Line
	8600 2250 8600 4350
Wire Wire Line
	8600 2050 8600 1950
Wire Wire Line
	9800 1950 9800 2050
Wire Wire Line
	9500 1950 9500 2050
Connection ~ 9500 1950
Wire Wire Line
	9200 1950 9200 2050
Connection ~ 9200 1950
Wire Wire Line
	8900 1950 8900 2050
Connection ~ 8900 1950
Wire Wire Line
	9050 1950 9050 2250
Connection ~ 9050 1950
Wire Wire Line
	8750 2250 8750 1950
Connection ~ 8750 1950
Wire Wire Line
	9350 1950 9350 2250
Connection ~ 9350 1950
Wire Wire Line
	9650 1950 9650 2250
Connection ~ 9650 1950
Wire Wire Line
	9650 2450 9650 4550
Wire Wire Line
	9800 2250 9800 4350
Wire Wire Line
	8600 2600 8500 2600
Wire Wire Line
	8750 2750 8500 2750
Wire Wire Line
	8500 2900 8900 2900
Wire Wire Line
	8900 2250 8900 4350
Wire Wire Line
	9050 2450 9050 4550
Wire Wire Line
	9050 3050 8500 3050
Wire Wire Line
	8500 3200 9200 3200
Wire Wire Line
	9200 2250 9200 4350
Wire Wire Line
	9350 2450 9350 4550
Wire Wire Line
	9350 3350 8500 3350
Wire Wire Line
	8500 3500 9500 3500
Wire Wire Line
	9500 2250 9500 4350
Wire Wire Line
	9650 3650 8500 3650
Wire Wire Line
	9800 3800 8500 3800
Wire Wire Line
	4650 2600 8200 2600
Wire Wire Line
	4650 2750 4750 2750
Wire Wire Line
	6800 3200 8200 3200
Wire Wire Line
	6800 3050 8200 3050
Wire Wire Line
	6800 2900 8200 2900
Wire Wire Line
	6800 2750 8200 2750
Wire Wire Line
	6800 3350 8200 3350
Wire Wire Line
	6800 3500 8200 3500
Wire Wire Line
	6800 3650 8200 3650
Wire Wire Line
	6800 3800 8200 3800
Wire Wire Line
	6800 3950 8200 3950
Wire Wire Line
	6800 4100 8200 4100
Wire Wire Line
	6800 4250 8200 4250
Wire Wire Line
	10250 1950 10250 2250
Connection ~ 9800 1950
Wire Wire Line
	9950 1950 9950 2250
Connection ~ 9950 1950
Wire Wire Line
	10100 1950 10100 2050
Connection ~ 10100 1950
Wire Wire Line
	9950 2450 9950 4550
Wire Wire Line
	9950 3950 8500 3950
Wire Wire Line
	8500 4100 10100 4100
Wire Wire Line
	10100 2250 10100 4350
Wire Wire Line
	10250 2450 10250 4550
Wire Wire Line
	10250 4250 8500 4250
Connection ~ 8600 2600
Wire Wire Line
	8600 4550 8600 4850
Wire Wire Line
	8600 4850 10450 4850
Wire Wire Line
	8750 4850 8750 4750
Connection ~ 10250 4250
Connection ~ 9950 3950
Connection ~ 9650 3650
Connection ~ 9350 3350
Connection ~ 9050 3050
Connection ~ 8750 2750
Connection ~ 10100 4100
Connection ~ 9800 3800
Connection ~ 9500 3500
Connection ~ 9200 3200
Connection ~ 8900 2900
Wire Wire Line
	10250 4850 10250 4750
Connection ~ 8750 4850
Wire Wire Line
	10100 4550 10100 4850
Connection ~ 10100 4850
Wire Wire Line
	9950 4850 9950 4750
Connection ~ 9950 4850
Wire Wire Line
	9800 4550 9800 4850
Connection ~ 9800 4850
Wire Wire Line
	9650 4850 9650 4750
Connection ~ 9650 4850
Wire Wire Line
	9500 4850 9500 4550
Connection ~ 9500 4850
Wire Wire Line
	9350 4750 9350 4850
Connection ~ 9350 4850
Wire Wire Line
	9200 4850 9200 4550
Connection ~ 9200 4850
Wire Wire Line
	9050 4750 9050 4850
Connection ~ 9050 4850
Wire Wire Line
	8900 4850 8900 4550
Connection ~ 8900 4850
Wire Wire Line
	3250 2900 3250 4350
Wire Wire Line
	10450 4850 10450 5050
Connection ~ 10250 4850
Wire Wire Line
	10450 1950 10450 1750
Connection ~ 10250 1950
Wire Wire Line
	3400 4850 3400 4750
Wire Wire Line
	3250 4850 3250 4550
Wire Wire Line
	3950 4850 4750 4850
Connection ~ 3400 4850
Wire Wire Line
	3600 4700 3600 5000
Wire Wire Line
	3800 4400 4750 4400
Wire Wire Line
	3600 4700 4750 4700
Connection ~ 3600 4850
Wire Wire Line
	3800 3200 4750 3200
Wire Wire Line
	3800 3350 4750 3350
Wire Wire Line
	3800 3500 4750 3500
Wire Wire Line
	3800 3650 4750 3650
Wire Wire Line
	3800 3800 4750 3800
Wire Wire Line
	3800 3950 4750 3950
Connection ~ 3250 4850
Connection ~ 8600 1950
Wire Wire Line
	8600 1950 10450 1950
Wire Wire Line
	5200 6200 5200 6400
Wire Wire Line
	6900 5050 6900 4400
Wire Wire Line
	6800 4400 7450 4400
Wire Wire Line
	3400 2050 3400 2700
Wire Wire Line
	3400 2700 3950 2700
Connection ~ 3950 4850
Wire Wire Line
	3500 2050 3500 2650
Wire Wire Line
	3500 2650 4000 2650
Wire Wire Line
	4000 2650 4000 4700
Connection ~ 4000 4700
Wire Wire Line
	4750 4550 4050 4550
Wire Wire Line
	4050 4550 4050 2600
Wire Wire Line
	4050 2600 3600 2600
Wire Wire Line
	3600 2600 3600 2050
Wire Wire Line
	3800 2050 3800 2500
Wire Wire Line
	3800 2500 4150 2500
Wire Wire Line
	4150 2500 4150 4250
Wire Wire Line
	4250 3950 4250 2400
Wire Wire Line
	4250 2400 4000 2400
Wire Wire Line
	4000 2400 4000 2050
Connection ~ 4250 3950
Wire Wire Line
	4100 2050 4100 2350
Wire Wire Line
	4100 2350 4300 2350
Wire Wire Line
	4300 2350 4300 3800
Connection ~ 4300 3800
Wire Wire Line
	4200 2050 4200 2300
Wire Wire Line
	4200 2300 4350 2300
Wire Wire Line
	4350 2300 4350 3650
Connection ~ 4350 3650
Wire Wire Line
	4400 3500 4400 2250
Wire Wire Line
	4400 2250 4300 2250
Wire Wire Line
	4300 2250 4300 2050
Connection ~ 4400 3500
Wire Wire Line
	4400 2050 4400 2200
Wire Wire Line
	4400 2200 4450 2200
Wire Wire Line
	4450 2200 4450 3350
Connection ~ 4450 3350
Wire Wire Line
	3900 2050 3900 2450
Wire Wire Line
	3900 2450 4200 2450
Wire Wire Line
	4200 2450 4200 4100
Wire Wire Line
	4500 2050 4500 3200
Connection ~ 4500 3200
Wire Wire Line
	4600 2050 4600 2200
Wire Wire Line
	3700 2050 3700 2550
Wire Wire Line
	3700 2550 4100 2550
Wire Wire Line
	4100 2550 4100 4400
Connection ~ 4100 4400
Wire Wire Line
	4750 3050 4550 3050
Wire Wire Line
	4550 3050 4550 2200
Wire Wire Line
	4550 2200 4600 2200
Wire Wire Line
	4800 2600 4800 2050
Connection ~ 4800 2600
Wire Wire Line
	4650 2600 4650 2750
Wire Wire Line
	4600 2900 4600 2250
Wire Wire Line
	4600 2250 4700 2250
Wire Wire Line
	4700 2250 4700 2050
Connection ~ 4600 2900
Wire Wire Line
	3500 4400 3400 4400
Wire Wire Line
	3250 2900 3500 2900
Wire Wire Line
	3800 2900 4750 2900
Connection ~ 6900 2750
Wire Wire Line
	6750 2150 6750 2650
Wire Wire Line
	6750 2650 6900 2650
Wire Wire Line
	6900 2650 6900 2750
Wire Wire Line
	6850 2150 6850 2550
Wire Wire Line
	6850 2550 6950 2550
Wire Wire Line
	6950 2550 6950 2900
Connection ~ 6950 2900
Wire Wire Line
	6950 2150 6950 2500
Wire Wire Line
	6950 2500 7000 2500
Wire Wire Line
	7000 2500 7000 3050
Connection ~ 7000 3050
Wire Wire Line
	7050 2150 7050 3200
Connection ~ 7050 3200
Wire Wire Line
	7150 2150 7150 2200
Wire Wire Line
	7150 2200 7100 2200
Wire Wire Line
	7100 2200 7100 3350
Connection ~ 7100 3350
Wire Wire Line
	7250 2150 7250 2250
Wire Wire Line
	7250 2250 7150 2250
Wire Wire Line
	7150 2250 7150 3500
Connection ~ 7150 3500
Wire Wire Line
	7350 2150 7350 2300
Wire Wire Line
	7350 2300 7200 2300
Wire Wire Line
	7200 2300 7200 3650
Connection ~ 7200 3650
Wire Wire Line
	7450 2150 7450 2350
Wire Wire Line
	7450 2350 7250 2350
Wire Wire Line
	7250 2350 7250 3800
Connection ~ 7250 3800
Wire Wire Line
	7550 2150 7550 2400
Wire Wire Line
	7550 2400 7300 2400
Wire Wire Line
	7300 2400 7300 3950
Connection ~ 7300 3950
Wire Wire Line
	7650 2150 7650 2450
Wire Wire Line
	7650 2450 7350 2450
Wire Wire Line
	7350 2450 7350 4100
Connection ~ 7350 4100
Wire Wire Line
	7750 2150 7750 2500
Wire Wire Line
	7750 2500 7400 2500
Wire Wire Line
	7400 2500 7400 4250
Connection ~ 7400 4250
Wire Wire Line
	7850 2150 7850 2550
Wire Wire Line
	7850 2550 7450 2550
Wire Wire Line
	7450 2550 7450 4400
Connection ~ 6900 4400
Wire Wire Line
	7950 2150 7950 2650
Wire Wire Line
	7950 2650 7500 2650
Wire Wire Line
	7500 2650 7500 4550
Wire Wire Line
	7500 4550 6800 4550
Wire Wire Line
	8050 2150 8050 2700
Wire Wire Line
	8050 2700 7550 2700
Wire Wire Line
	7550 2700 7550 4700
Wire Wire Line
	7550 4700 6800 4700
Wire Wire Line
	8150 2150 8150 2800
Wire Wire Line
	8150 2800 7600 2800
Wire Wire Line
	7600 2800 7600 4850
Wire Wire Line
	7600 4850 6800 4850
Wire Wire Line
	4950 5400 5600 5400
Wire Wire Line
	3950 6000 3950 6300
Connection ~ 5200 5400
Wire Wire Line
	5500 6300 5500 5500
Wire Wire Line
	5500 5500 5600 5500
Wire Wire Line
	3150 1750 3150 4200
Wire Wire Line
	1800 4100 4750 4100
Wire Wire Line
	1750 4250 4750 4250
Wire Wire Line
	3400 4400 3400 4550
Wire Wire Line
	3150 4200 4100 4200
Connection ~ 4100 4200
Wire Wire Line
	5200 5500 5200 5400
Wire Wire Line
	5200 5800 5200 5900
Wire Wire Line
	3800 6300 5500 6300
Connection ~ 5200 6300
Wire Wire Line
	4600 6300 4600 6100
Connection ~ 4600 6300
Connection ~ 3150 1950
Wire Wire Line
	2050 2250 2050 1950
Wire Wire Line
	2800 1950 2800 2050
Connection ~ 2800 1950
Wire Wire Line
	2650 1950 2650 2250
Connection ~ 2650 1950
Wire Wire Line
	2500 1950 2500 2050
Connection ~ 2500 1950
Wire Wire Line
	2350 1950 2350 2250
Connection ~ 2350 1950
Wire Wire Line
	2200 1950 2200 2050
Connection ~ 2200 1950
Wire Wire Line
	1650 1950 3150 1950
Wire Wire Line
	2800 2250 2800 4550
Wire Wire Line
	2650 2450 2650 4350
Wire Wire Line
	2500 2250 2500 4550
Wire Wire Line
	2350 2450 2350 4350
Wire Wire Line
	2200 2250 2200 4550
Wire Wire Line
	2050 2450 2050 4350
Connection ~ 2050 3200
Wire Wire Line
	3500 3200 2050 3200
Wire Wire Line
	3500 3350 2200 3350
Wire Wire Line
	2350 3500 3500 3500
Wire Wire Line
	3500 3650 2500 3650
Wire Wire Line
	2650 3800 3500 3800
Wire Wire Line
	3500 3950 2800 3950
Connection ~ 2800 3950
Connection ~ 2650 3800
Connection ~ 2500 3650
Connection ~ 2350 3500
Connection ~ 2200 3350
Connection ~ 2800 4850
Wire Wire Line
	2800 4850 2800 4750
Connection ~ 2650 4850
Wire Wire Line
	2650 4850 2650 4550
Connection ~ 2500 4850
Wire Wire Line
	2500 4850 2500 4750
Connection ~ 2350 4850
Wire Wire Line
	2350 4850 2350 4550
Connection ~ 2200 4850
Wire Wire Line
	2200 4850 2200 4750
Wire Wire Line
	2050 4850 2050 4550
Wire Wire Line
	1450 4850 3600 4850
Wire Wire Line
	1650 1950 1650 3950
Connection ~ 2050 1950
Wire Wire Line
	1450 4250 1450 3800
Wire Wire Line
	1450 3800 1650 3800
Connection ~ 1650 3800
Connection ~ 4200 4100
Wire Wire Line
	1750 4250 1750 4400
Wire Wire Line
	1750 4400 1600 4400
Connection ~ 4150 4250
Wire Wire Line
	1650 4250 1650 4850
Connection ~ 2050 4850
Wire Wire Line
	1450 4550 1450 4850
Connection ~ 1650 4850
Wire Wire Line
	3950 2700 3950 5700
Connection ~ 3950 5300
$Comp
L C C2
U 1 1 5AEEF654
P 3800 5500
F 0 "C2" H 3825 5600 50  0000 L CNN
F 1 "100nF" H 3550 5400 50  0000 L CNN
F 2 "Capacitors_ThroughHole:C_Rect_L7_W3.5_P5" H 3838 5350 50  0001 C CNN
F 3 "" H 3800 5500 50  0000 C CNN
	1    3800 5500
	1    0    0    -1  
$EndComp
Wire Wire Line
	3800 5350 3800 5150
Wire Wire Line
	3800 5150 3900 5150
Wire Wire Line
	3900 5150 3900 4400
Connection ~ 3900 4400
Wire Wire Line
	3800 5650 3800 6300
Connection ~ 3950 6300
$EndSCHEMATC
